[
{
   "fields": {
      "name": "outgoing"
   },
   "model": "fmail.direction",
   "pk": 1
},
{
   "fields": {
      "name": "incoming"
   },
   "model": "fmail.direction",
   "pk": 2
},
{
   "fields": {
      "name": "email"
   },
   "model": "fmail.medium",
   "pk": 1
},
{
   "fields": {
      "name": "phone"
   },
   "model": "fmail.medium",
   "pk": 2
},
{
   "fields": {
      "name": "sms"
   },
   "model": "fmail.medium",
   "pk": 3
},
{
   "fields": {
      "name": "skype"
   },
   "model": "fmail.medium",
   "pk": 4
},
{
   "fields": {
      "name": "tw"
   },
   "model": "fmail.medium",
   "pk": 5
},
{
   "fields": {
      "name": "fb"
   },
   "model": "fmail.medium",
   "pk": 6
},
{
   "fields": {
      "name": "li"
   },
   "model": "fmail.medium",
   "pk": 7
},
{
   "fields": {
      "name": "unknown"
   },
   "model": "fmail.messagestatus",
   "pk": 1
},
{
   "fields": {
      "name": "delivered"
   },
   "model": "fmail.messagestatus",
   "pk": 2
},
{
   "fields": {
      "name": "bounce"
   },
   "model": "fmail.messagestatus",
   "pk": 3
},
{
   "fields": {
      "name": "soft-bounce"
   },
   "model": "fmail.messagestatus",
   "pk": 4
},
{
   "fields": {
      "name": "unsub"
   },
   "model": "fmail.messagestatus",
   "pk": 5
},
{
   "fields": {
      "name": "rejected"
   },
   "model": "fmail.messagestatus",
   "pk": 6
},
{
   "fields": {
      "name": "spam"
   },
   "model": "fmail.messagestatus",
   "pk": 7
}
]
